2127 50
1 4 9 17 41 11
1 6 14 0 2 17 45 47
1 9 9 17 17 48 13 45 25 35 21
1 8 31 42 1 31 42 1 14 41
1 1 7
0 10 31 42 1 31 42 1 9 38 7 45
1 4 9 17 41 11
1 8 9 49 0 0 24 39 13 7
1 0 
0 11 7 13 45 0 45 13 26 45 41 40 38
0 4 42 46 20 1
0 3 10 46 48
0 5 4 13 42 20 45
0 2 1 49
1 0 
1 1 7
1 0 
0 7 23 4 17 8 41 37 34
1 18 7 13 45 13 45 41 40 38 43 0 26 39 13 22 0 26 45 29
0 4 49 31 41 34
0 4 31 40 31 36
0 8 14 17 40 15 43 15 36 5
1 0 
0 11 4 43 37 42 46 7 13 45 13 45 22
1 13 31 42 1 31 42 1 14 17 6 12 20 16 19
0 9 9 20 13 45 13 3 13 45 22
0 2 12 1
1 1 7
1 6 9 17 17 48 13 45
1 9 14 45 25 19 10 23 37 23 37
0 2 11 47
0 4 7 41 18 18
0 12 14 39 13 12 0 7 15 41 33 10 15 36
1 7 7 41 40 49 17 2 7
0 4 15 43 39 7
0 2 3 16
0 3 48 39 16
1 4 31 42 1 4
1 1 7
1 4 9 38 47 7
1 0 
0 5 14 45 45 34 25
0 2 46 41
0 10 3 9 17 43 7 17 20 39 13 7
1 32 4 37 42 1 9 17 45 47 25 19 15 37 23 37 9 37 17 35 21 19 15 37 23 37 17 19 10 17 35 21 19 10
0 2 7 38
1 10 14 39 13 22 0 26 41 11 16 19
1 5 9 49 0 40 12
0 8 12 38 47 47 33 43 7 49
0 9 29 7 32 44 44 44 44 19 31
0 4 14 1 25 38
1 25 14 39 13 12 45 25 19 10 23 37 17 19 15 37 9 37 17 35 21 35 21 19 10 9 37
1 0 
0 2 21 1
1 11 9 38 47 43 40 43 15 34 41 25 28
0 4 9 20 34 17
0 5 49 45 14 12 21
1 9 9 20 41 18 13 45 13 45 22
0 4 33 9 17 45
1 12 9 38 47 12 45 25 19 10 23 37 23 37
1 1 7
0 12 4 43 43 44 6 42 1 9 20 8 41 22
0 8 20 13 45 41 7 18 31 41
1 1 7
0 7 14 7 43 7 38 12 11
0 3 37 49 22
1 0 
1 25 14 45 25 35 21 35 21 35 21 19 15 37 23 37 17 19 10 23 37 9 37 17 19 15 37
0 6 4 37 1 31 41 34
0 3 4 0 43
1 6 4 43 37 42 1 16
0 10 11 14 38 15 6 47 6 11 14 19
0 4 35 37 42 1
1 16 4 37 42 1 14 41 11 16 12 8 8 20 32 31 16 16
0 5 35 7 15 0 45
1 4 4 43 43 43
0 4 2 31 41 34
1 0 
0 2 44 43
0 1 0
1 0 
0 4 14 1 25 38
1 0 
1 9 14 0 43 45 49 0 40 12 43
1 8 9 20 41 40 17 41 11 32
0 4 25 10 42 14
0 5 18 36 40 41 34
1 7 9 38 22 0 26 45 29
1 8 14 0 15 34 49 10 42 10
0 3 9 38 41
0 4 9 8 25 29
0 9 4 37 42 19 1 4 37 41 34
0 4 29 10 42 7
1 0 
0 2 21 1
0 6 7 41 18 35 13 22
0 11 7 6 5 13 31 8 13 45 13 45 22
0 5 39 48 27 39 47
0 4 14 21 0 12
1 0 
0 5 14 30 49 13 41
0 4 45 19 7 34
1 7 14 39 13 12 39 13 47
1 0 
0 5 14 39 13 49 7
0 10 13 45 41 49 27 13 22 42 12 43
1 5 9 17 39 13 47
0 3 44 16 13
0 3 31 8 41
0 6 27 13 45 45 0 22
0 5 31 40 6 41 34
0 2 36 10
0 5 10 45 47 47 47
1 1 7
1 17 14 39 13 22 40 22 15 24 33 10 42 15 38 33 15 3 10
0 2 34 8
1 0 
0 4 37 9 49 39
0 12 38 32 47 12 17 48 47 13 47 39 13 7
1 6 9 20 13 45 13 45
1 17 14 17 2 11 32 31 37 44 31 16 16 16 16 16 16 37 44
0 5 37 24 20 7 22
1 4 14 39 13 12
0 4 44 1 7 41
1 11 31 42 1 4 37 42 1 31 42 1 7
0 2 28 13
1 0 
0 3 19 1 22
1 0 
0 2 3 10
0 3 7 18 3
0 3 16 1 20
0 4 39 31 41 34
1 9 4 37 42 1 7 13 45 13 45
1 3 9 20 41
1 0 
1 1 7
0 1 43
1 17 14 41 11 16 31 48 13 41 11 32 31 37 31 37 44 31 16
1 0 
1 6 4 43 43 37 41 34
0 2 22 41
1 0 
0 3 13 45 41
0 5 9 38 12 42 38
0 6 6 41 17 40 38 43
0 13 14 41 11 16 31 6 6 23 16 31 48 5 13
0 8 4 2 41 37 34 41 3 34
1 0 
0 3 48 39 16
0 2 30 36
1 7 14 17 48 13 41 11 32
1 12 4 37 42 1 14 41 11 16 12 20 16 19
1 0 
0 11 14 17 48 13 39 26 13 12 17 48 13
0 5 4 37 34 1 37
0 12 9 10 0 43 43 7 38 12 39 28 21 41
1 0 
1 1 7
1 6 14 17 2 11 16 19
0 4 36 31 41 34
0 5 13 39 47 4 43
1 7 9 17 17 48 13 39 13
0 4 14 16 1 28
1 17 31 42 1 4 37 42 1 14 41 11 32 44 44 31 16 37 31
0 1 49
0 2 7 24
0 6 31 9 1 29 41 34
0 7 14 0 25 16 38 33 10
0 13 42 1 4 37 42 1 31 42 1 4 37 41 34
0 11 7 13 45 0 45 13 26 45 41 40 38
1 1 7
1 6 14 41 7 32 31 37
0 14 14 37 39 13 47 43 0 37 17 17 17 34 24 43
0 6 1 4 38 37 42 1
0 7 9 49 17 38 36 13 47
1 0 
1 0 
1 13 9 38 43 2 38 22 40 47 43 2 17 39 13
1 9 9 17 17 6 31 48 13 0 38
0 6 32 0 0 37 41 34
0 2 15 13
0 4 33 9 17 45
1 6 4 37 42 1 14 0
1 0 
0 4 44 11 13 22
1 11 14 17 2 11 16 12 20 16 31 6 19
0 6 7 0 45 9 2 8
0 1 36
1 8 4 37 42 1 7 41 40 17
1 0 
0 4 1 35 20 22
0 5 7 41 28 18 34
0 6 14 17 13 17 6 19
0 4 37 0 33 38
0 8 11 7 45 26 13 27 13 45
0 6 14 17 13 17 6 19
0 6 45 30 9 2 17 41
0 5 14 17 6 35 7
0 8 9 38 18 43 35 22 49 43
1 10 9 38 47 22 2 38 47 47 12 43
1 0 
0 4 41 48 7 1
0 2 19 34
1 3 9 20 41
0 2 8 47
1 7 14 39 13 12 39 13 47
0 6 11 49 41 11 16 19
1 8 9 49 17 48 13 17 2 7
0 4 7 13 45 34
1 5 9 49 0 15 28
1 0 
0 64 9 17 39 13 22 15 34 33 15 25 3 29 47 24 33 10 42 10 42 15 38 33 15 3 15 38 33 10 42 15 15 3 15 33 29 47 38 38 33 10 42 15 19 2 30 38 33 15 15 34 23 15 3 10 10 42 15 15 34 25 16 15 36 5
1 13 9 38 43 2 38 22 40 47 43 2 17 39 13
1 0 
0 3 10 29 43
0 5 48 13 2 17 23
0 4 42 1 31 34
0 3 9 17 16
1 0 
0 4 11 36 41 46
0 7 31 42 39 46 1 7 14
1 6 14 45 25 19 15 37
0 3 16 1 20
1 1 7
0 13 14 6 13 22 40 22 9 20 41 46 1 20 41
0 2 32 21
1 10 4 43 37 42 1 9 49 17 2 7
1 10 9 38 12 41 11 32 31 37 31 37
0 9 9 9 38 3 22 15 40 17 7
1 11 9 38 47 43 40 43 15 34 41 25 28
0 4 2 1 21 16
0 2 48 46
0 7 14 42 18 17 48 13 43
0 4 35 31 16 34
1 10 4 43 37 42 1 4 43 37 42 1
0 3 38 31 7
0 4 4 37 29 1
0 8 31 42 48 1 13 45 45 22
0 3 7 18 3
0 3 32 30 16
0 5 14 17 10 2 26
0 3 18 20 13
1 9 14 41 7 16 12 8 27 8 20
0 1 49
0 3 21 7 22
1 8 4 43 37 42 1 9 49 0
1 1 7
0 3 29 16 22
0 5 49 39 43 7 49
1 0 
1 9 14 0 0 26 41 7 32 44 31
0 21 9 38 22 0 24 17 6 31 2 7 32 31 30 37 31 37 31 16 16 37 44
0 6 49 17 2 7 16 19
1 0 
1 0 
1 1 7
1 9 7 41 40 49 39 13 22 15 28
0 4 42 1 31 34
0 2 1 49
1 10 14 0 0 17 26 17 48 13 45 47
1 8 4 37 42 1 9 38 47 7
0 2 46 28
0 5 9 20 41 18 1
1 9 4 37 42 1 7 41 40 20 22
0 3 13 45 22
0 5 37 45 7 16 19
0 9 9 17 41 16 31 2 7 32 44
0 9 2 9 49 0 0 10 45 47 29
0 2 36 10
1 4 31 42 1 4
1 0 
0 7 4 43 37 1 31 41 34
1 0 
0 21 4 43 37 42 22 7 41 18 13 45 41 18 13 41 18 41 18 41 18 45 22
0 4 7 13 38 45
1 6 4 43 43 37 41 34
0 7 34 0 0 2 33 24 43
1 8 9 49 17 48 13 45 47 29
1 1 7
1 17 14 17 48 13 41 7 32 44 44 31 16 37 31 37 44 31 37
0 4 2 31 41 34
1 6 7 13 45 13 45 41
1 1 7
1 12 31 42 1 31 42 1 31 42 1 9 20 22
0 5 4 27 47 5 41
0 7 9 17 41 11 1 44 44
1 13 4 43 37 42 1 14 17 48 13 41 7 32 31
0 31 7 41 40 49 45 25 35 21 35 21 19 24 37 17 19 15 37 9 37 23 37 17 19 10 9 37 23 37 17 19 10
1 9 9 49 39 13 47 12 39 13 22
0 5 39 48 27 39 47
1 13 31 42 1 9 49 41 11 32 31 37 31 37 44
0 4 4 37 1 34
1 8 31 42 1 14 41 7 16 19
0 2 34 15
1 10 9 38 12 41 11 32 31 37 31 37
0 3 4 43 37
0 15 9 17 39 13 12 0 43 15 38 12 39 13 43 40 7
0 3 4 43 13
0 3 0 4 2
1 1 7
0 4 3 5 28 3
1 8 9 49 17 48 13 17 2 7
0 5 1 9 43 0 24
0 5 40 43 37 41 34
0 7 9 20 41 18 13 1 0
1 4 31 42 1 4
0 4 31 42 3 16
0 2 27 7
0 4 9 7 8 45
1 1 7
1 12 14 39 13 43 2 49 39 13 12 39 13 7
1 0 
1 0 
0 5 29 45 35 29 34
0 3 34 42 43
1 9 31 42 1 9 38 47 43 40 7
0 1 36
0 4 9 4 41 34
1 6 4 43 43 37 41 34
0 2 42 26
1 6 9 20 13 45 41 34
1 1 7
1 5 9 49 41 7 32
1 1 7
0 2 13 12
1 0 
0 5 4 37 34 1 37
1 1 7
0 6 9 0 2 41 16 19
0 6 46 1 14 45 47 22
1 26 14 39 13 22 0 26 45 25 19 15 37 9 37 23 37 17 19 10 17 35 21 19 15 37 23 37
1 6 7 13 45 13 45 41
0 18 14 17 48 13 45 25 19 10 23 45 23 23 37 23 9 37 17 19
1 0 
1 0 
1 0 
0 5 7 14 20 34 34
0 3 35 11 41
1 0 
0 3 49 43 22
0 6 7 0 35 33 20 28
0 7 34 7 31 42 13 1 1
0 7 31 42 1 12 9 49 43
0 3 4 43 37
1 10 14 45 25 19 15 37 17 19 15 37
1 9 14 39 13 12 17 48 13 45 29
0 2 41 4
0 4 9 17 13 29
0 2 9 21
0 20 14 17 2 7 16 31 48 13 39 13 47 22 15 34 33 15 6 49 15 19
0 3 18 41 41
1 13 9 17 17 48 13 41 11 32 44 31 16 16 37
1 11 9 17 17 6 12 8 8 20 32 31 16
0 6 16 38 42 38 14 41
1 10 31 42 1 9 17 39 13 43 40 43
0 2 36 43
1 0 
1 8 7 41 40 38 12 45 47 25
0 2 32 38
0 4 7 45 41 18
0 7 4 17 42 1 31 42 1
0 6 9 49 41 35 16 26
0 6 4 18 16 37 41 34
1 5 9 49 0 15 28
0 7 29 4 43 37 41 31 34
1 8 9 20 41 40 20 41 18 22
1 5 9 38 22 40 7
0 4 11 38 4 20
1 0 
1 14 4 37 42 1 14 17 48 13 0 2 38 43 40 7
0 5 24 7 14 13 22
0 2 49 32
1 0 
0 2 41 16
0 10 38 14 39 12 13 38 11 15 45 37
0 7 14 0 25 16 38 33 10
0 4 9 4 41 34
1 4 4 43 43 43
0 4 24 16 20 43
1 27 14 17 48 13 17 48 13 39 13 47 47 47 43 40 12 17 48 13 45 25 35 21 19 15 37 9 37
1 1 7
0 2 44 7
0 13 9 49 41 26 16 6 7 16 31 48 11 13 43
1 17 14 39 13 22 40 22 15 24 33 10 42 15 38 33 15 3 10
1 12 7 41 40 49 39 13 47 12 45 25 35 21
1 10 9 38 47 43 40 47 43 2 17 43
0 3 4 1 16
1 0 
0 7 8 7 13 45 6 45 22
0 8 4 21 37 29 9 16 43 40
0 2 22 6
0 2 12 5
1 6 7 13 45 13 45 41
0 2 28 22
1 13 31 42 1 14 0 40 47 22 43 45 17 45 29
0 10 7 13 45 18 41 18 45 13 45 45
1 8 4 43 37 42 1 7 41 34
1 12 14 0 2 20 13 45 41 18 13 45 41 34
0 3 7 36 41
0 8 9 20 29 5 18 41 47 34
0 4 7 45 13 25
1 9 4 37 42 1 7 41 40 20 22
0 3 41 24 34
0 4 9 39 39 13
0 4 18 7 13 45
0 13 14 35 11 32 31 37 31 16 37 44 44 31 16
0 3 13 45 41
0 5 31 42 40 41 34
0 6 4 43 37 21 42 16
0 3 47 41 7
0 4 9 24 45 28
1 6 9 38 47 43 2 49
0 10 13 45 41 49 27 13 22 42 12 43
0 4 9 49 45 12
0 5 9 43 12 45 29
0 7 14 0 26 26 39 9 26
1 0 
0 2 13 17
0 4 18 7 13 45
1 1 7
0 5 9 35 12 27 5
0 7 4 4 4 41 39 9 34
1 4 31 42 1 4
0 3 9 1 29
0 2 32 16
1 7 9 17 17 48 13 39 13
0 8 9 38 22 2 32 43 47 22
0 2 39 27
1 15 7 13 45 13 45 41 40 17 17 48 13 17 6 12 8
0 1 49
1 1 7
1 5 9 49 0 40 12
0 3 6 47 47
0 1 43
0 5 10 45 47 47 47
0 8 32 38 14 41 7 16 12 45
1 4 31 42 1 4
1 9 31 42 1 14 39 13 43 15 28
1 14 14 45 25 19 15 37 23 37 9 37 9 37 9 37
0 4 7 48 45 0
1 12 9 38 43 43 7 17 17 6 31 48 13 43
1 11 14 39 13 47 47 22 43 7 17 45 47
1 8 9 38 43 0 24 17 6 19
1 0 
0 15 14 45 25 35 21 39 35 21 19 10 9 37 17 35 21
0 3 14 2 16
0 7 9 17 41 11 1 44 44
0 7 9 20 41 18 13 1 0
0 3 31 19 34
1 12 31 42 1 31 42 1 31 42 1 9 20 22
1 11 4 43 43 37 42 1 14 0 43 7 17
1 0 
0 6 13 47 0 41 18 3
1 11 4 43 43 37 42 1 14 0 43 7 17
1 0 
1 0 
0 6 4 42 47 37 41 34
1 26 14 17 2 7 16 12 20 16 31 48 13 45 25 19 10 17 19 15 37 17 35 21 35 21 19 10
0 3 35 41 34
0 4 43 13 41 5
1 6 9 49 39 13 12 43
0 4 31 1 14 43
0 4 9 24 45 28
0 7 31 42 9 49 0 39 46
1 1 7
1 0 
0 5 27 14 45 47 29
1 3 14 41 7
0 15 14 39 6 43 40 47 22 0 24 17 6 6 12 10 0
1 6 9 38 12 17 48 13
0 3 7 22 28
0 3 15 38 38
1 17 4 37 42 1 4 37 42 1 7 13 45 13 45 41 40 20 22
1 9 9 17 39 13 47 47 22 40 12
1 6 4 43 43 37 41 34
1 0 
0 4 7 34 3 45
1 13 4 43 37 42 1 31 42 1 4 37 42 1 16
1 0 
0 5 13 43 23 20 40
0 2 41 16
0 2 3 10
0 5 4 27 47 5 41
0 6 33 31 41 40 41 22
1 9 14 41 7 32 44 31 37 31 37
0 7 31 23 42 1 31 41 34
0 2 31 38
0 5 13 2 23 1 34
0 3 14 7 29
0 5 4 21 37 41 34
1 17 14 45 25 19 15 37 9 37 9 37 23 37 17 19 10 23 37
1 8 14 41 11 16 12 20 32 31
0 5 9 17 44 0 38
0 2 47 7
0 1 0
0 4 9 49 37 43
0 2 36 47
1 4 31 42 1 4
0 8 12 38 47 47 33 43 7 49
1 6 14 0 2 17 45 47
0 12 14 39 13 43 43 24 7 49 8 11 32 31
1 13 4 43 37 42 1 14 17 48 13 41 7 32 31
1 5 9 17 17 6 19
1 0 
0 8 4 21 37 29 9 16 43 40
1 6 9 38 22 0 24 45
0 2 30 8
1 1 7
1 9 14 41 7 16 31 2 7 16 19
0 6 46 1 14 45 47 22
0 4 42 46 20 1
0 4 7 13 45 34
1 5 14 0 43 7 20
0 3 1 2 48
1 6 7 13 45 13 45 41
1 4 31 42 1 4
0 5 33 8 22 45 9
1 7 31 42 1 14 39 13 22
1 5 9 17 39 13 47
0 5 9 43 12 45 29
1 12 9 38 47 43 0 24 41 11 16 31 6 19
0 4 31 19 41 6
0 3 41 21 34
1 8 7 41 40 38 47 47 47 7
1 0 
0 2 10 43
1 11 9 38 47 43 40 22 15 34 49 15 19
1 14 31 42 1 14 0 0 26 41 7 32 44 31 37 31
1 7 9 20 41 40 38 22 38
0 8 14 7 25 35 14 21 36 21
0 3 11 24 45
1 6 14 39 13 12 17 2
0 4 9 17 5 13
1 9 14 0 15 36 37 41 41 30 19
1 17 14 45 25 19 15 37 9 37 9 37 23 37 17 19 10 23 37
1 0 
0 5 13 43 23 20 40
0 3 33 32 16
0 2 35 16
1 0 
1 0 
1 8 9 20 13 45 13 45 41 34
1 3 14 41 7
0 1 36
0 3 4 41 18
0 3 31 4 34
0 10 43 26 25 43 43 47 37 35 41 34
1 11 14 39 13 43 0 17 17 26 17 6 19
1 14 9 17 45 47 47 25 35 21 19 10 17 19 15 37
1 11 14 39 13 47 47 22 43 7 17 45 47
0 3 40 45 6
0 11 9 4 17 39 44 6 14 41 1 3 31
1 0 
0 4 7 45 13 25
1 0 
1 8 9 38 43 40 22 15 36 5
0 5 4 37 10 41 34
1 8 14 0 43 7 20 13 45 22
0 6 9 31 39 42 22 16
1 0 
0 2 9 25
0 5 9 35 12 27 5
0 5 4 21 37 41 34
1 9 7 13 45 41 40 20 41 40 49
0 4 36 37 42 1
0 2 27 7
1 10 31 42 1 14 17 6 6 7 16 19
0 6 6 2 23 37 31 1
0 16 14 39 48 13 47 47 12 17 2 16 31 2 11 7 16 12
0 7 9 10 43 24 33 41 34
0 6 4 1 43 37 41 34
0 3 12 38 22
1 6 9 38 47 43 2 49
1 8 9 20 41 40 17 41 11 32
0 2 2 2
1 7 31 42 1 14 17 6 12
0 5 4 48 43 37 11
0 5 13 1 13 41 34
0 12 9 39 13 43 15 24 33 15 19 2 49 10
1 4 14 39 13 12
0 3 4 1 16
1 3 14 41 7
1 13 4 43 37 42 1 31 42 1 4 37 42 1 16
0 3 7 13 21
0 3 4 37 28
0 3 14 10 7
0 3 31 42 49
0 11 4 43 43 43 37 42 1 9 28 38 43
1 9 9 49 41 7 32 31 16 16 16
1 0 
0 1 0
0 6 11 49 41 11 16 19
0 8 9 38 18 43 35 22 49 43
0 10 43 14 0 0 24 0 29 0 26 41
0 4 3 24 31 12
1 14 14 41 7 32 31 16 37 44 31 37 44 31 37 31
1 0 
0 4 23 42 1 16
0 7 4 43 37 1 31 41 34
1 9 4 43 37 42 1 9 38 43 38
0 4 44 1 7 41
1 0 
1 6 9 38 22 0 24 45
0 5 33 8 22 45 9
0 3 29 36 18
1 14 14 41 7 32 31 16 37 44 31 37 44 31 37 31
0 4 25 10 42 14
0 5 49 39 43 7 49
0 3 24 37 43
1 3 9 20 41
0 2 6 15
0 7 14 17 12 12 10 16 19
0 4 7 29 43 16
0 5 1 49 7 45 41
0 7 31 42 9 49 0 39 46
0 4 7 28 45 10
0 4 24 16 20 43
0 6 7 41 18 35 13 22
1 26 14 39 13 22 0 26 45 25 19 15 37 9 37 23 37 17 19 10 17 35 21 19 15 37 23 37
0 3 1 2 48
1 12 31 42 1 31 42 1 4 43 43 37 41 34
1 0 
0 8 4 43 43 29 7 25 24 41
0 1 49
1 23 31 42 1 4 43 37 42 1 14 45 47 25 35 21 19 10 9 37 9 37 17 35 21
0 3 17 45 29
1 6 14 41 7 32 31 37
0 5 4 13 42 20 45
0 7 7 0 33 45 10 33 45
1 0 
0 4 7 1 18 22
1 1 7
0 4 9 45 48 10
0 6 14 6 23 31 45 29
0 10 9 38 34 49 29 39 13 22 2 0
0 7 31 30 15 1 4 14 45
0 4 31 42 1 9
1 1 7
0 2 17 46
0 8 11 7 45 26 13 27 13 45
0 1 49
0 3 3 49 43
1 12 9 17 45 47 47 25 35 21 35 21 35 21
0 2 0 25
0 2 3 16
1 9 9 49 39 13 47 47 12 0 38
1 3 14 41 7
1 15 9 17 17 48 13 41 7 32 44 44 31 16 16 37 44
0 12 31 42 1 25 42 16 9 38 43 15 3 10
0 7 4 5 15 37 41 39 34
0 9 28 13 45 31 13 45 41 40 7
1 17 14 45 25 35 21 19 10 9 37 17 19 15 37 23 37 23 37
0 7 14 34 21 2 11 16 19
0 10 14 17 48 13 39 12 17 2 1 11
0 4 30 8 1 23
0 12 14 35 35 35 44 21 35 21 35 21 24 19
0 7 31 23 42 1 31 41 34
0 3 1 39 30
0 1 43
0 5 4 2 37 41 32
1 5 9 38 43 15 34
1 12 9 38 47 47 12 17 6 31 6 12 8 8
0 4 9 17 13 29
1 13 31 42 1 9 49 41 11 32 31 37 31 37 44
0 2 6 34
1 17 4 37 42 1 4 37 42 1 7 13 45 13 45 41 40 20 22
0 11 12 14 7 32 44 44 31 44 31 16 30
0 4 9 13 38 7
0 6 9 43 20 13 23 22
1 1 7
1 8 14 0 15 34 49 10 42 10
0 6 31 27 1 37 41 34
0 4 22 31 24 34
1 0 
1 4 4 43 43 43
0 3 19 1 22
0 7 9 17 17 19 48 13 43
0 6 14 41 11 16 10 6
1 0 
0 8 4 43 43 29 7 25 24 41
1 6 14 39 13 43 2 49
1 17 14 17 2 11 32 31 37 44 31 16 16 16 16 16 16 37 44
0 2 28 49
0 4 31 42 3 16
0 2 9 8
0 5 7 14 20 34 34
1 6 4 43 43 37 41 34
0 2 49 41
0 3 29 21 16
0 3 12 38 22
0 3 7 36 41
1 7 31 42 1 14 39 13 22
0 16 14 11 32 31 37 31 16 37 12 31 37 31 16 37 44 31
1 1 7
0 3 29 16 22
0 5 14 0 2 2 11
1 13 7 13 45 13 45 13 45 13 45 41 40 17 43
1 6 9 49 41 11 16 19
1 10 9 17 39 13 43 43 45 17 45 25
0 3 34 33 16
1 9 9 20 13 45 41 40 49 41 7
1 14 14 41 11 16 12 20 16 6 11 32 44 44 44 31
1 0 
1 6 14 39 13 12 17 2
0 7 14 45 45 13 35 43 21
1 9 9 17 17 6 31 48 13 0 38
0 2 44 3
0 2 12 41
0 1 36
0 9 9 9 38 3 22 15 40 17 7
1 7 14 41 11 32 31 37 31
1 8 7 41 40 17 17 6 6 11
0 7 4 37 17 8 42 1 16
1 0 
1 10 14 45 25 19 15 37 17 19 15 37
0 7 32 1 1 0 12 41 34
0 7 8 7 13 45 6 45 22
0 6 9 8 5 0 41 39
0 10 11 14 38 15 6 47 6 11 14 19
0 3 16 4 16
0 21 14 0 15 34 30 38 33 10 42 46 42 10 42 15 38 40 10 42 15 3 10
0 4 7 20 13 22
1 19 31 42 1 31 42 1 9 38 12 17 48 13 39 13 22 2 17 41 7
0 2 42 37
0 7 31 42 1 31 16 41 34
0 1 0
0 5 31 1 7 9 43
0 4 37 0 33 38
1 0 
0 9 16 7 13 33 13 45 6 13 45
1 9 9 49 39 13 47 47 12 0 38
1 9 9 49 17 2 7 16 12 8 27
1 5 9 49 0 15 28
0 3 40 7 22
0 3 4 0 43
0 5 14 2 20 30 4
0 5 14 6 23 8 27
1 8 4 43 37 42 1 7 41 34
0 4 7 48 45 0
0 2 12 1
0 2 7 4
0 6 1 38 1 14 17 2
0 3 9 38 41
0 11 4 43 43 43 37 42 1 9 28 38 43
1 7 4 43 43 43 37 41 34
0 5 12 14 39 13 12
0 5 17 31 1 4 29
0 8 14 7 25 35 14 21 36 21
0 15 9 38 22 40 47 22 23 15 16 15 3 15 41 30 7
0 10 9 20 24 45 32 13 13 45 45 22
0 2 47 17
1 12 14 39 13 47 43 2 38 47 47 47 43 38
0 5 14 39 47 43 7
1 9 9 17 17 48 13 45 25 35 21
0 7 16 31 42 1 31 1 22
1 7 4 43 43 43 37 41 34
0 6 31 42 49 45 37 29
0 4 19 42 6 18
1 10 9 20 13 45 41 40 38 22 43 46
1 13 14 39 13 43 0 17 24 0 0 17 17 26 45
0 10 25 41 11 32 31 16 16 37 44 31
1 11 7 41 40 38 22 40 22 43 45 20 22
0 3 31 41 37
1 0 
0 8 14 39 13 43 12 15 36 5
1 5 9 17 0 2 49
1 18 14 45 25 19 15 37 17 35 21 19 15 37 23 37 17 35 21 19
1 0 
0 4 14 12 40 22
1 4 9 17 45 47
0 4 37 9 49 39
0 13 14 41 11 16 31 6 6 23 16 31 48 5 13
1 10 9 49 17 48 13 17 48 13 45 25
1 9 4 43 37 42 1 9 17 41 11
0 6 9 31 39 42 22 16
1 12 4 37 42 1 4 43 43 43 37 42 1 16
0 2 44 3
1 1 7
1 10 9 17 41 11 16 12 8 8 20 32
0 2 28 22
1 11 31 42 1 4 37 42 1 31 42 1 7
0 13 9 38 12 41 11 32 44 44 44 44 44 39 31
0 2 15 13
0 6 31 36 1 35 41 34
1 10 9 38 47 47 43 43 45 17 0 43
1 0 
1 8 9 20 13 45 13 45 41 34
0 5 17 31 1 4 29
0 6 14 49 0 41 45 8
0 3 15 42 7
1 10 31 42 1 9 17 39 13 43 40 43
1 13 14 39 13 12 45 47 47 25 19 10 9 37 17
0 3 9 38 3
0 3 27 42 16
0 2 42 26
0 5 4 37 10 41 34
1 6 9 38 47 22 15 16
1 13 31 42 1 31 42 1 14 17 6 12 20 16 19
0 5 9 17 35 6 29
0 5 4 14 17 0 6
1 8 4 37 42 1 9 17 0 38
0 2 6 22
0 3 0 6 13
1 0 
1 11 14 17 2 7 16 31 6 6 7 16 19
1 32 4 37 42 1 9 17 45 47 25 19 15 37 23 37 9 37 17 35 21 19 15 37 23 37 17 19 10 17 35 21 19 10
0 2 8 47
1 11 31 42 1 14 0 43 45 49 39 13 7
0 2 48 46
0 3 31 32 34
1 9 9 20 41 40 17 45 25 35 21
0 5 13 1 13 41 34
1 6 4 43 43 37 41 34
0 5 4 43 37 1 16
0 5 14 39 13 49 7
0 3 0 6 13
0 2 5 15
1 0 
1 7 9 17 17 6 31 48 13
1 13 9 17 17 48 13 41 11 32 44 31 16 16 37
0 4 36 31 41 34
0 10 9 38 12 49 17 2 7 32 44 44
0 5 5 25 10 14 11
1 8 14 41 11 16 12 20 32 31
1 1 7
0 12 9 20 41 40 17 48 44 17 6 31 2 11
1 12 4 43 37 42 1 4 37 42 1 9 49 45
1 1 7
0 4 15 49 41 34
0 4 1 45 37 1
1 0 
0 21 9 38 22 0 24 17 6 31 2 7 32 31 30 37 31 37 31 16 16 37 44
0 2 5 10
1 26 14 17 2 7 16 12 20 16 31 48 13 45 25 19 10 17 19 15 37 17 35 21 35 21 19 10
1 0 
1 0 
1 6 9 38 22 40 47 7
1 6 4 43 43 37 41 34
0 9 28 13 45 31 13 45 41 40 7
0 10 9 17 39 13 47 3 47 43 2 17
0 4 31 1 14 43
1 18 14 17 6 31 48 13 17 2 7 16 31 48 13 0 15 16 15 28
0 6 9 20 13 11 20 22
1 9 7 41 40 49 17 2 7 32 31
1 6 4 43 37 42 1 16
0 3 9 1 29
0 3 29 36 18
0 3 49 15 43
1 9 9 20 41 18 41 40 49 45 29
1 11 4 43 43 37 42 1 9 20 13 45 41
0 10 7 40 17 0 40 47 43 2 38 7
0 5 25 42 1 14 41
1 1 7
1 0 
0 6 31 42 1 31 24 34
0 12 31 42 1 25 42 16 9 38 43 15 3 10
0 5 14 45 45 47 29
1 0 
0 3 2 31 34
0 6 14 6 23 31 45 29
1 1 7
0 2 1 26
1 6 4 43 43 37 41 34
1 6 14 39 13 43 2 49
1 24 9 49 39 13 22 2 49 41 11 16 12 8 27 27 8 8 27 27 27 8 20 32 44 31
0 4 7 1 18 22
0 5 4 48 43 37 11
0 2 47 35
1 0 
0 13 14 28 8 26 48 13 41 5 11 22 32 31 16
0 5 4 43 37 1 16
0 12 19 9 49 17 20 13 41 7 32 44 31 16
1 1 7
0 4 11 38 4 20
0 2 47 35
1 0 
0 8 31 4 41 37 42 10 1 9
1 9 31 42 1 9 49 0 0 24 43
0 10 9 38 12 49 17 2 7 32 44 44
0 11 12 14 7 32 44 44 31 44 31 16 30
1 9 9 38 43 0 24 39 13 47 7
0 2 31 38
1 0 
0 5 3 14 17 2 7
0 6 37 48 40 45 47 29
0 9 29 7 32 44 44 44 44 19 31
1 0 
0 5 5 25 10 14 11
0 5 29 45 35 29 34
0 2 32 21
0 2 35 16
1 14 4 37 42 1 14 17 48 13 0 2 38 43 40 7
1 5 9 17 17 6 19
0 4 15 43 39 7
0 6 14 24 45 47 45 47
1 5 9 17 0 2 49
0 31 7 41 40 49 45 25 35 21 35 21 19 24 37 17 19 15 37 9 37 23 37 17 19 10 9 37 23 37 17 19 10
1 8 14 0 0 26 41 7 16 19
0 15 14 45 25 35 21 39 35 21 19 10 9 37 17 35 21
1 17 14 17 48 13 41 7 32 44 44 31 16 37 31 37 44 31 37
0 4 7 20 13 22
0 6 28 32 40 43 34 3
0 2 42 37
1 11 4 43 43 37 42 1 9 20 13 45 41
0 2 19 34
0 3 1 29 45
0 9 42 1 31 42 1 4 23 41 23
0 7 4 32 43 43 37 41 34
1 24 9 49 39 13 22 2 49 41 11 16 12 8 27 27 8 8 27 27 27 8 20 32 44 31
1 0 
1 7 4 37 42 1 9 20 41
1 8 31 42 1 14 41 7 16 19
0 5 14 16 25 35 32
0 2 5 15
0 2 9 22
0 3 9 17 13
1 0 
1 9 4 37 42 1 7 13 45 13 45
1 11 14 39 13 43 0 17 17 26 17 6 19
0 4 42 1 7 22
0 4 9 18 20 22
1 12 31 42 1 31 42 1 4 43 43 37 41 34
1 10 14 0 15 36 37 9 15 38 33 10
0 7 14 0 26 26 39 9 26
0 5 31 11 27 41 0
0 8 14 39 13 43 12 15 36 5
0 4 9 39 39 13
0 2 46 28
1 10 9 38 43 2 38 47 22 40 47 7
0 6 4 24 37 25 41 34
0 9 4 37 42 19 1 4 37 41 34
1 18 14 45 25 19 15 37 17 35 21 19 15 37 23 37 17 35 21 19
0 5 14 45 45 47 29
0 8 46 41 12 25 38 40 47 7
0 4 24 42 42 16
0 4 1 48 41 34
1 6 9 49 41 11 16 19
1 11 9 17 17 6 12 8 8 20 32 31 16
1 9 9 20 41 18 13 45 13 45 22
1 0 
0 1 0
0 3 7 7 22
1 17 14 17 2 7 32 31 16 37 44 44 31 16 16 37 44 31 37
0 2 6 15
0 1 49
1 28 7 13 45 13 45 13 45 13 45 41 40 17 0 0 17 24 39 13 22 0 17 17 24 39 13 47 22 38
0 5 31 24 45 41 34
0 4 24 35 34 45
1 22 9 49 45 47 25 19 15 37 9 37 23 37 9 37 9 37 17 19 15 37 23 37
0 12 14 15 34 33 37 29 46 15 41 32 23 10
0 4 9 17 6 2
1 9 31 42 1 4 37 42 1 7 22
0 10 14 39 6 12 39 13 43 2 20 22
1 12 4 37 42 1 14 41 11 16 12 20 16 19
0 1 43
0 2 30 36
0 2 1 16
0 4 9 36 17 39
0 5 43 27 31 41 34
0 3 9 17 16
0 3 27 41 6
0 9 42 1 31 42 1 4 23 41 23
1 11 14 39 13 12 41 11 32 31 37 44 44
0 14 14 41 11 32 44 34 31 37 31 37 31 16 16 16
0 2 22 41
0 2 9 1
0 3 45 41 34
0 7 45 37 42 4 43 37 34
0 2 9 8
1 8 14 0 43 7 38 43 40 7
0 8 32 38 14 41 7 16 12 45
1 0 
0 4 3 24 31 12
1 7 31 42 1 14 45 25 19
1 4 31 42 1 4
0 6 43 41 40 49 17 11
1 5 9 17 0 15 36
0 9 9 20 13 45 13 3 13 45 22
0 3 29 40 41
0 2 34 8
0 10 25 41 11 32 31 16 16 37 44 31
0 4 31 40 31 36
1 1 7
1 27 14 17 48 13 17 48 13 39 13 47 47 47 43 40 12 17 48 13 45 25 35 21 19 15 37 9 37
0 11 9 4 17 39 44 6 14 41 1 3 31
0 3 14 7 29
0 5 9 35 13 45 41
0 5 4 37 41 39 34
1 7 31 42 1 14 45 25 19
0 3 34 31 34
1 10 9 38 43 2 38 47 22 40 47 7
0 7 9 0 2 16 49 21 16
0 6 4 42 47 37 41 34
0 1 0
0 4 7 13 38 45
0 3 7 45 22
1 0 
1 25 14 45 25 35 21 35 21 35 21 19 15 37 23 37 17 19 10 23 37 9 37 17 19 15 37
0 4 1 48 41 34
0 7 9 38 47 21 12 45 47
0 5 37 45 7 16 19
1 5 9 49 41 7 32
0 6 4 43 43 43 37 34
1 0 
1 0 
0 3 14 10 7
0 2 7 16
0 5 31 11 27 41 0
0 5 29 40 47 19 34
1 0 
1 10 9 49 17 48 13 17 48 13 45 25
0 3 4 37 28
1 14 9 38 47 43 43 45 49 0 2 49 0 15 34 41
0 6 14 39 25 15 43 46
1 8 31 42 1 9 49 0 15 28
1 0 
1 9 31 42 1 9 49 0 0 24 43
0 3 7 13 2
1 0 
1 0 
1 18 14 17 6 31 48 13 17 2 7 16 31 48 13 0 15 16 15 28
1 0 
0 3 16 1 16
1 9 31 42 1 9 38 47 43 40 7
0 3 27 41 6
0 12 14 39 13 43 43 24 7 49 8 11 32 31
0 7 14 40 2 24 41 18 25
1 0 
0 5 40 43 37 41 34
1 9 14 45 25 19 10 23 37 23 37
1 10 4 43 37 42 1 4 43 37 42 1
0 5 14 2 20 30 4
0 5 4 2 37 41 32
1 4 31 42 1 4
0 3 14 2 16
0 4 45 37 40 34
0 14 30 25 20 41 40 38 47 47 43 15 34 49 15 19
0 4 4 37 29 1
0 9 31 42 1 31 42 1 7 2 34
1 1 7
0 3 7 45 22
1 9 14 17 2 7 16 31 6 6 11
0 9 16 7 13 33 13 45 6 13 45
0 3 29 40 41
1 6 4 43 37 42 1 16
0 2 7 24
0 7 14 0 10 23 43 21 46
0 8 31 4 41 37 42 10 1 9
0 3 31 8 41
1 7 14 17 48 13 41 11 32
0 6 32 0 0 37 41 34
0 2 30 8
1 8 9 17 41 11 16 12 8 27
1 8 14 0 43 7 20 13 45 22
0 3 16 4 16
1 10 14 41 7 32 44 44 44 44 44 44
0 4 19 42 6 18
1 6 4 43 37 42 1 16
0 3 9 24 4
1 0 
0 6 9 43 20 13 23 22
1 5 9 49 0 2 20
1 10 9 17 41 11 16 12 8 8 20 32
1 18 7 13 45 13 45 41 40 38 43 0 26 39 13 22 0 26 45 29
0 5 12 14 39 13 12
0 2 1 26
0 7 4 17 42 1 31 42 1
0 6 31 36 1 35 41 34
0 3 10 29 49
1 7 9 17 17 2 11 32 44
1 1 7
0 21 14 0 15 34 30 38 33 10 42 46 42 10 42 15 38 40 10 42 15 3 10
0 7 3 31 42 18 6 1 43
1 0 
1 8 7 41 40 38 12 45 47 25
1 9 31 42 1 14 39 13 47 12 41
1 9 7 13 45 41 40 20 41 40 49
1 0 
0 13 9 38 12 41 11 32 44 44 44 44 44 39 31
1 4 9 17 45 47
0 5 4 14 17 0 6
1 14 9 49 41 7 32 44 44 44 44 44 44 44 44 31
1 7 7 41 18 41 40 20 22
1 0 
1 0 
0 10 40 14 17 13 21 32 22 0 17 26
1 0 
1 7 14 41 7 32 44 31 16
0 3 47 41 7
1 10 9 20 13 45 41 40 38 22 43 46
1 0 
0 8 4 37 42 1 14 26 6 12
1 1 7
0 4 14 21 0 12
0 1 49
0 3 43 4 34
1 7 4 43 43 43 37 41 34
1 14 4 43 37 42 1 4 37 42 1 7 41 18 41 34
0 3 15 38 38
0 5 14 16 25 35 32
0 3 7 22 28
1 10 14 0 0 17 26 17 48 13 45 47
0 8 4 2 41 37 34 41 3 34
1 8 14 39 13 43 0 17 24 43
1 0 
0 3 49 15 43
1 0 
1 0 
1 11 4 37 42 1 4 43 43 43 37 41 34
0 4 45 37 40 34
0 5 18 7 10 12 22
0 7 9 10 43 24 33 41 34
0 2 5 10
0 2 8 11
0 6 9 0 2 41 16 19
0 3 26 8 36
0 7 24 41 40 20 41 18 22
0 3 40 45 6
1 6 14 0 0 17 26 43
1 8 9 38 47 43 40 12 0 38
0 3 9 38 3
0 18 14 17 48 13 45 25 19 10 23 45 23 23 37 23 9 37 17 19
0 2 0 39
0 2 47 24
0 6 33 42 1 31 41 36
1 9 4 43 37 42 1 9 38 43 38
0 8 26 31 42 9 13 45 41 15
0 7 4 45 39 37 28 27 34
0 3 12 7 34
1 17 14 17 2 7 32 31 16 37 44 44 31 16 16 37 44 31 37
1 1 7
1 0 
1 0 
0 64 9 17 39 13 22 15 34 33 15 25 3 29 47 24 33 10 42 10 42 15 38 33 15 3 15 38 33 10 42 15 15 3 15 33 29 47 38 38 33 10 42 15 19 2 30 38 33 15 15 34 23 15 3 10 10 42 15 15 34 25 16 15 36 5
1 9 9 49 17 2 7 16 12 8 27
1 14 14 17 48 13 17 6 6 11 32 31 37 44 31 16
0 6 6 41 17 40 38 43
0 10 38 14 39 12 13 38 11 15 45 37
1 9 9 38 43 0 24 39 13 47 7
0 12 14 15 34 33 37 29 46 15 41 32 23 10
0 5 38 40 13 26 7
0 3 13 45 22
0 5 4 43 43 42 1
0 2 11 47
0 3 7 13 2
1 4 9 38 47 7
0 9 31 42 1 31 42 1 7 2 34
1 0 
0 5 35 7 15 0 45
0 5 16 45 41 4 17
0 5 1 49 7 45 41
1 8 14 17 48 13 41 11 16 12
0 3 43 4 34
1 4 4 43 43 43
0 5 15 18 43 33 43
1 19 4 43 43 43 37 42 1 31 42 1 9 38 43 2 20 41 18 41 18
1 0 
1 0 
0 2 40 31
1 6 4 43 43 37 41 34
1 6 7 41 40 20 41 34
1 16 14 17 6 12 20 16 31 2 11 32 44 31 37 31 16 16
0 2 33 6
1 20 14 17 48 13 41 11 32 31 16 37 44 44 44 31 37 44 44 31 16 16
0 6 14 24 45 47 45 47
0 3 10 16 22
0 6 4 24 37 25 41 34
1 7 31 42 1 14 17 6 12
0 4 9 7 8 45
0 8 9 20 10 13 45 13 45 22
1 0 
0 3 0 38 22
0 4 9 13 38 7
1 1 7
0 8 31 1 17 2 7 16 31 44
0 1 36
1 12 14 0 2 20 13 45 41 18 13 45 41 34
0 2 0 25
1 0 
0 5 48 13 2 17 23
0 4 17 26 7 22
0 2 26 41
1 8 14 17 6 31 6 12 8 8
0 6 1 38 1 14 17 2
0 15 9 38 22 40 47 22 23 15 16 15 3 15 41 30 7
0 9 44 42 1 37 42 1 31 41 34
1 4 4 43 43 43
0 12 19 9 49 17 20 13 41 7 32 44 31 16
1 12 9 38 43 43 7 17 17 6 31 48 13 43
0 2 6 34
1 11 31 42 1 14 0 43 45 49 39 13 7
1 10 14 45 25 35 21 19 15 37 9 37
1 0 
1 0 
1 6 14 0 43 7 20 22
0 4 7 45 41 18
0 4 9 49 37 43
1 7 9 17 17 6 31 48 13
0 7 14 45 45 13 35 43 21
0 4 7 0 18 22
1 8 4 43 37 42 1 7 41 34
0 4 17 26 7 22
0 10 7 40 17 0 40 47 43 2 38 7
1 9 14 0 0 17 26 45 25 35 21
0 7 4 37 17 8 42 1 16
0 4 17 41 13 2
0 2 2 2
1 6 9 20 13 45 41 34
0 15 32 27 17 43 15 34 10 42 15 38 33 3 23 3 26
1 10 9 17 39 13 43 43 45 17 45 25
0 2 14 5
1 10 9 38 47 22 2 38 47 47 12 43
0 4 5 4 41 35
0 4 7 0 18 22
1 1 7
1 8 14 17 6 31 6 12 8 8
0 5 9 35 13 45 41
0 6 14 39 16 22 18 32
0 2 32 16
1 4 14 39 13 12
1 0 
0 2 9 12
0 8 4 37 12 1 9 42 14 7
1 1 7
1 11 14 39 13 12 41 11 32 31 37 44 44
0 3 4 41 18
1 1 7
1 1 7
1 9 14 0 2 49 39 13 22 40 7
0 4 14 16 1 28
1 0 
0 7 14 0 10 23 43 21 46
1 14 14 17 48 13 17 6 6 11 32 31 37 44 31 16
0 8 31 46 42 1 14 41 7 19
1 17 4 37 42 1 31 42 1 31 42 1 4 43 43 43 37 41 34
0 1 49
1 0 
1 11 4 37 42 1 31 42 1 14 39 13 7
1 8 14 39 13 43 2 49 17 2
1 21 31 42 1 14 41 7 32 44 31 16 16 37 31 37 31 16 16 16 37 44 44
0 5 29 40 47 19 34
0 2 15 26
1 9 7 41 40 49 17 2 7 32 31
1 6 9 38 12 17 48 13
0 6 45 30 9 2 17 41
0 13 14 35 11 32 31 37 31 16 37 44 44 31 16
1 0 
1 6 9 38 22 2 20 41
0 2 1 38
1 5 9 38 22 40 7
1 0 
1 19 31 42 1 31 42 1 9 38 12 17 48 13 39 13 22 2 17 41 7
0 8 41 7 13 45 13 45 41 22
0 1 36
1 6 9 38 47 22 15 16
0 4 7 28 45 10
1 6 9 20 13 45 13 45
1 8 14 41 7 32 44 44 31 16
1 1 7
1 8 31 42 1 7 41 18 41 34
0 8 46 41 12 25 38 40 47 7
0 13 14 17 2 7 32 31 16 37 12 31 16 16 16
1 33 9 17 45 25 19 15 37 9 37 17 19 15 37 9 37 9 37 17 19 10 17 19 15 37 17 19 10 23 37 9 37 23 37
0 2 20 45
0 5 31 42 40 41 34
1 8 9 49 0 0 24 39 13 7
1 14 4 43 37 42 1 4 37 42 1 7 41 18 41 34
0 4 7 34 3 45
0 8 26 31 42 9 13 45 41 15
0 2 24 15
1 0 
0 5 7 41 28 18 34
0 3 10 29 49
0 2 13 14
0 6 4 43 37 42 47 4
1 1 7
1 7 4 43 37 42 1 4 43
1 7 7 41 18 41 40 20 22
1 0 
0 5 33 17 29 6 45
0 2 9 21
1 6 4 43 43 37 41 34
1 0 
1 9 14 41 7 32 44 31 37 31 37
1 0 
0 11 14 17 48 13 39 26 13 12 17 48 13
0 4 15 49 41 34
0 9 42 14 43 17 2 11 16 12 8
1 0 
0 5 33 17 29 6 45
0 4 4 37 1 34
0 3 49 43 48
0 6 4 1 43 37 41 34
0 12 38 32 47 12 17 48 47 13 47 39 13 7
0 3 7 13 21
0 6 14 49 0 41 45 8
1 0 
0 6 1 4 38 37 42 1
0 4 9 20 34 17
1 10 14 45 25 35 21 19 15 37 9 37
1 11 14 0 43 7 17 17 48 13 17 2 11
0 5 9 45 16 41 38
1 0 
1 9 14 0 0 17 26 45 25 35 21
1 8 9 17 17 6 6 11 16 12
0 4 14 12 40 22
1 3 14 41 7
1 0 
0 1 43
0 11 9 49 17 48 14 31 33 46 15 36 5
1 0 
0 4 21 8 37 20
0 6 24 14 48 34 43 1
0 13 14 28 8 26 48 13 41 5 11 22 32 31 16
1 17 4 37 42 1 31 42 1 31 42 1 4 43 43 43 37 41 34
0 3 49 43 22
0 9 9 38 22 3 40 22 7 16 41
0 2 38 9
0 4 3 5 28 3
1 0 
1 20 14 17 48 13 41 11 32 31 16 37 44 44 44 31 37 44 44 31 16 16
0 2 7 38
0 6 49 17 2 7 16 19
0 15 32 27 17 43 15 34 10 42 15 38 33 3 23 3 26
0 4 35 31 16 34
0 4 7 41 18 18
0 4 7 4 46 22
0 10 31 42 1 31 42 1 9 38 7 45
1 0 
1 4 4 43 43 43
0 2 37 36
1 9 9 17 39 13 47 47 22 40 12
0 4 7 4 46 22
1 4 14 45 47 29
0 10 12 9 20 13 45 41 18 13 45 22
1 8 9 17 17 48 13 39 13 7
1 8 9 17 41 7 32 44 44 44
0 4 31 42 1 9
0 2 7 16
1 9 14 17 2 7 16 6 7 32 44
0 13 14 17 48 13 17 2 7 16 31 6 6 11 16
1 0 
0 9 42 14 43 17 2 11 16 12 8
0 2 9 25
1 0 
1 9 9 38 47 22 40 43 15 36 5
0 12 14 39 13 12 0 7 15 41 33 10 15 36
1 0 
0 7 4 4 4 41 39 9 34
0 5 9 17 35 6 29
1 0 
1 0 
0 10 9 38 12 0 24 0 4 12 47 43
0 7 31 42 1 17 37 41 34
0 4 47 47 41 34
1 5 9 17 0 15 36
1 6 4 43 43 37 41 34
0 7 31 42 1 17 37 41 34
0 31 9 17 45 25 19 10 9 37 9 37 9 37 17 35 21 35 21 35 21 19 10 23 37 23 37 23 37 17 35 45 21
0 5 9 38 12 42 38
0 2 44 7
0 3 41 24 34
0 5 15 18 43 33 43
0 7 45 37 42 4 43 37 34
1 11 9 20 41 40 20 13 45 13 45 41 34
0 10 12 9 20 13 45 41 18 13 45 22
1 8 7 41 40 38 47 47 47 7
1 6 9 38 22 0 26 43
0 1 43
1 9 31 42 1 31 42 1 14 0 38
0 6 47 14 22 17 48 13
0 4 45 19 7 34
0 7 9 38 47 21 12 45 47
1 0 
0 11 9 49 17 48 14 31 33 46 15 36 5
1 6 4 43 43 37 41 34
1 11 4 37 42 1 4 43 43 43 37 41 34
1 7 4 43 43 43 37 41 34
0 8 4 37 42 1 14 26 6 12
0 6 9 20 13 11 20 22
0 13 37 42 1 31 42 1 4 34 42 1 0 14 43
1 4 9 38 47 7
1 13 7 13 45 13 45 13 45 13 45 41 40 17 43
1 9 14 45 47 47 47 47 47 47 47
0 2 13 17
1 1 7
1 11 4 37 42 1 31 42 1 14 39 13 7
1 0 
0 5 14 45 45 34 25
1 1 7
0 12 14 35 35 35 44 21 35 21 35 21 24 19
1 11 9 38 47 12 39 13 47 22 43 45 17
0 2 16 22
1 10 4 43 37 42 1 9 49 17 2 7
1 6 9 49 39 13 12 43
0 5 14 6 23 8 27
1 1 7
0 13 14 17 48 13 17 2 7 16 31 6 6 11 16
0 3 10 46 48
0 6 33 31 41 40 41 22
0 24 4 37 42 1 9 41 17 39 13 12 17 2 7 32 31 12 44 44 31 37 31 16 37 31
0 5 3 37 13 37 34
0 6 29 31 41 31 35 8
1 25 31 42 1 14 17 48 13 0 43 7 38 43 0 17 24 0 0 26 41 11 32 31 37 44 31
1 6 9 38 22 40 47 7
0 2 9 12
0 7 9 43 49 41 7 16 19
0 2 13 14
1 0 
0 5 9 49 1 25 19
0 3 47 39 10
0 3 2 31 34
1 0 
0 6 24 14 48 34 43 1
1 8 9 17 41 11 16 12 8 27
0 2 15 26
0 7 23 4 17 8 41 37 34
1 9 31 42 1 9 49 17 48 13 43
0 2 44 43
0 5 14 17 6 35 7
0 1 43
0 2 9 18
0 10 9 38 34 49 29 39 13 22 2 0
1 9 14 17 2 7 16 31 6 6 11
0 13 37 42 1 31 42 1 4 34 42 1 0 14 43
1 0 
1 1 7
1 7 9 20 41 18 13 45 22
0 3 9 17 13
0 10 7 13 45 18 41 18 45 13 45 45
1 0 
0 5 31 5 42 3 39
0 3 14 47 49
0 5 4 37 42 13 16
0 4 22 31 24 34
1 0 
0 5 38 40 13 26 7
0 16 14 11 32 31 37 31 16 37 12 31 37 31 16 37 44 31
0 2 17 46
0 5 9 17 44 0 38
1 14 31 42 1 14 0 0 26 41 7 32 44 31 37 31
1 0 
0 6 18 39 38 46 3 31
0 13 14 6 13 22 40 22 9 20 41 46 1 20 41
1 17 31 42 1 4 37 42 1 14 41 11 32 44 44 31 16 37 31
1 14 9 38 47 43 43 45 49 0 2 49 0 15 34 41
1 14 9 49 41 7 32 44 44 44 44 44 44 44 44 31
1 8 14 0 43 7 38 43 40 7
1 15 9 49 0 0 24 39 13 43 15 3 15 30 15 36 37
1 0 
0 9 4 48 43 43 43 43 37 5 34
0 8 4 37 42 1 7 41 40 41
1 0 
0 3 18 16 14
0 14 30 25 20 41 40 38 47 47 43 15 34 49 15 19
0 8 22 4 43 43 42 44 42 1
1 0 
0 9 44 42 1 37 42 1 31 41 34
0 4 15 42 38 22
0 6 9 14 46 0 1 6
1 0 
0 2 14 5
1 7 14 39 13 22 2 17 45
1 0 
0 5 9 17 41 1 16
1 0 
0 5 49 45 14 12 21
1 22 9 49 45 47 25 19 15 37 9 37 23 37 9 37 9 37 17 19 15 37 23 37
1 0 
1 6 14 0 0 17 26 43
1 9 14 17 2 7 16 6 7 32 44
1 0 
0 19 45 38 12 17 48 13 39 13 12 41 11 16 31 2 11 48 31 16 16
1 28 7 13 45 13 45 13 45 13 45 41 40 17 0 0 17 24 39 13 22 0 17 17 24 39 13 47 22 38
1 3 14 41 7
1 0 
0 2 2 13
0 4 24 35 34 45
1 6 14 0 43 7 20 22
1 6 4 43 43 37 41 34
1 1 7
0 6 7 40 20 45 49 18
1 0 
1 6 4 43 37 42 1 16
0 4 15 12 34 43
0 3 15 42 7
1 11 14 17 2 11 32 31 37 44 44 44 31
0 6 7 13 45 9 13 45
0 4 31 41 40 34
0 8 14 17 40 15 43 15 36 5
1 0 
1 6 9 49 0 0 26 43
0 7 14 42 18 17 48 13 43
1 12 14 39 13 47 43 2 38 47 47 47 43 38
1 9 9 20 41 40 17 45 25 35 21
1 0 
1 13 14 39 13 43 0 17 24 0 0 17 17 26 45
1 1 7
1 9 7 13 45 41 40 49 39 13 43
1 0 
0 13 9 49 39 13 22 2 17 45 25 19 15 8 17
1 6 9 38 22 0 26 43
0 3 17 45 29
0 5 18 7 10 12 22
1 4 14 45 47 29
1 6 14 45 25 19 15 37
1 0 
0 7 1 4 20 19 0 19 34
1 8 14 0 0 26 41 7 16 19
0 2 8 11
1 0 
0 4 35 37 42 1
1 21 14 17 2 11 32 44 44 31 16 37 31 37 44 31 37 31 37 44 44 31 16
0 4 42 1 7 22
1 6 4 43 37 42 1 16
0 6 9 21 38 13 43 38
0 7 4 37 42 1 4 14 0
0 19 45 38 12 17 48 13 39 13 12 41 11 16 31 2 11 48 31 16 16
0 9 9 38 22 3 40 22 7 16 41
1 1 7
0 10 9 17 39 13 47 3 47 43 2 17
1 0 
0 4 48 7 17 0
0 2 46 41
0 2 41 4
0 2 13 12
1 6 9 49 0 0 26 43
0 2 3 8
1 0 
1 7 14 41 7 16 31 2 11
0 5 9 17 13 45 29
0 7 32 1 1 0 12 41 34
0 4 14 39 24 7
0 2 49 32
0 3 35 12 11
0 6 9 14 46 0 1 6
1 0 
1 0 
0 3 13 35 16
0 5 38 9 5 25 43
1 9 7 41 40 49 39 13 22 15 28
0 12 4 43 43 44 6 42 1 9 20 8 41 22
0 2 21 26
1 0 
0 5 7 41 40 47 47
1 1 7
0 2 36 47
0 10 40 14 17 13 21 32 22 0 17 26
0 3 40 46 37
1 24 14 45 47 25 35 21 35 21 35 21 35 21 35 21 35 21 19 15 37 17 19 15 37 17
1 9 31 42 1 7 41 40 20 13 45
1 12 9 38 47 43 0 24 41 11 16 31 6 19
1 17 14 45 25 35 21 19 10 9 37 17 19 15 37 23 37 23 37
0 5 5 14 28 48 46
0 6 9 21 38 13 43 38
1 8 7 13 45 13 45 41 40 38
1 9 14 41 7 16 31 2 7 16 19
1 0 
1 0 
0 3 40 7 22
0 3 7 7 22
1 9 9 49 41 11 16 31 48 13 43
0 4 17 41 13 2
0 8 31 42 48 1 13 45 45 22
1 7 14 41 7 16 31 2 11
1 8 31 42 1 9 49 0 15 28
1 0 
0 3 0 38 22
1 1 7
1 4 14 45 47 29
0 9 9 17 33 13 47 22 40 12 43
0 6 7 0 45 9 2 8
0 3 40 46 37
0 3 18 16 14
0 3 6 47 47
0 3 6 2 40
1 9 9 49 41 7 32 31 16 16 16
0 1 43
1 0 
0 3 24 37 43
1 25 14 39 13 12 45 25 19 10 23 37 17 19 15 37 9 37 17 35 21 35 21 19 10 9 37
0 10 9 38 12 0 24 0 4 12 47 43
1 1 7
1 0 
0 7 31 42 1 44 48 14 35
0 7 9 43 49 41 7 16 19
0 13 42 1 4 37 42 1 31 42 1 4 37 41 34
0 3 3 49 43
0 3 31 4 34
0 2 47 17
1 6 7 41 18 41 40 38
0 4 43 13 41 5
1 1 7
0 3 26 8 36
0 2 7 43
0 6 28 32 40 43 34 3
0 7 14 34 21 2 11 16 19
0 4 9 45 48 10
0 3 16 1 16
1 8 4 37 42 1 9 38 47 7
0 8 41 7 13 45 13 45 41 22
1 8 4 43 37 42 1 9 49 0
0 3 22 7 22
0 3 31 41 37
0 8 1 21 40 48 45 25 36 19
1 0 
0 5 39 4 37 41 34
1 0 
0 2 5 31
0 3 0 4 2
1 9 7 13 45 41 40 49 39 13 43
0 8 14 11 35 39 13 26 15 28
1 16 14 17 6 12 20 16 31 2 11 32 44 31 37 31 16 16
1 6 7 41 40 20 41 34
1 1 7
0 4 1 35 20 22
1 13 9 38 43 0 24 17 6 6 7 16 31 2 7
1 10 31 42 1 14 17 6 6 7 16 19
0 6 31 42 1 31 24 34
0 4 20 13 45 22
1 9 31 42 1 14 39 13 47 12 41
1 6 4 43 43 37 41 34
0 3 5 41 11
1 0 
1 10 14 41 7 32 44 44 44 44 44 44
0 13 14 17 2 7 32 31 16 37 12 31 16 16 16
1 9 14 39 13 12 17 48 13 45 29
0 3 49 10 20
1 7 14 41 11 32 31 37 31
1 7 9 20 41 18 13 45 22
0 7 31 42 9 49 41 7 32
0 4 31 17 37 1
1 6 4 37 42 1 14 0
1 11 14 17 2 11 16 12 20 16 31 6 19
0 4 31 17 37 1
0 7 14 7 43 7 38 12 11
1 0 
1 0 
0 4 15 42 38 22
0 7 3 31 42 18 6 1 43
0 2 35 16
0 4 23 42 1 16
0 4 11 36 41 46
1 0 
0 6 9 49 41 35 16 26
0 8 9 38 22 2 32 43 47 22
0 8 9 20 29 5 18 41 47 34
0 7 9 0 2 16 49 21 16
0 4 49 31 41 34
0 2 20 45
0 4 44 11 13 22
0 11 4 43 37 42 46 7 13 45 13 45 22
0 4 9 18 20 22
0 3 31 3 7
0 3 35 41 34
1 5 9 49 0 2 20
0 8 4 37 12 1 9 42 14 7
0 7 29 4 43 37 41 31 34
0 5 5 19 22 28 14
1 0 
0 4 14 39 24 7
0 4 9 49 45 12
0 10 3 9 17 43 7 17 20 39 13 7
1 4 14 45 47 29
1 0 
0 5 13 39 47 4 43
0 3 22 7 22
1 1 7
0 14 14 37 39 13 47 43 0 37 17 17 17 34 24 43
0 7 7 0 33 45 10 33 45
0 4 9 8 25 29
0 3 0 42 48
0 5 9 49 25 39 47
0 10 43 14 0 0 24 0 29 0 26 41
1 25 31 42 1 14 17 48 13 0 43 7 38 43 0 17 24 0 0 26 41 11 32 31 37 44 31
0 2 22 3
1 6 9 38 22 2 20 41
0 3 29 43 43
0 3 49 43 48
0 1 0
1 21 14 17 2 11 32 44 44 31 16 37 31 37 44 31 37 31 37 44 44 31 16
0 4 38 12 41 7
1 8 31 42 1 7 41 18 41 34
0 5 14 0 2 2 11
0 20 14 17 2 7 16 31 48 13 39 13 47 22 15 34 33 15 6 49 15 19
0 8 31 42 34 1 31 18 41 34
1 13 9 38 43 0 24 17 6 6 7 16 31 2 7
0 5 39 4 37 41 34
0 5 31 24 45 41 34
1 1 7
1 11 14 17 2 11 32 31 37 44 44 44 31
0 6 4 37 1 31 41 34
0 4 30 8 1 23
0 2 38 9
0 2 18 15
0 13 9 49 39 13 22 2 17 45 25 19 15 8 17
0 6 27 13 45 45 0 22
0 4 1 45 37 1
0 2 30 5
1 8 9 20 41 40 20 41 18 22
1 0 
0 12 9 20 41 40 17 48 44 17 6 31 2 11
0 6 31 27 1 37 41 34
1 0 
0 5 4 43 43 42 1
0 3 34 31 34
0 6 13 47 0 41 18 3
0 5 14 30 49 13 41
0 2 27 12
1 5 14 0 43 7 20
0 2 6 22
1 8 14 17 48 13 41 11 16 12
1 11 14 0 43 7 17 17 48 13 17 2 11
0 4 21 8 37 20
0 1 43
1 4 4 43 43 43
1 0 
1 6 9 20 13 45 41 34
1 13 4 43 43 37 42 1 9 17 39 13 43 0 24
1 0 
0 2 22 6
1 0 
0 5 5 14 28 48 46
0 2 9 22
1 0 
1 4 14 45 47 29
0 6 14 39 25 15 43 46
0 5 9 20 41 18 1
0 2 22 3
0 6 31 9 1 29 41 34
0 4 47 47 41 34
0 4 36 37 42 1
0 16 14 39 48 13 47 47 12 17 2 16 31 2 11 7 16 12
0 3 45 41 34
0 11 4 43 37 42 1 4 43 43 37 30 34
1 9 9 49 17 6 12 8 8 20 32
1 15 7 13 45 13 45 41 40 17 17 48 13 17 6 12 8
0 8 14 11 35 39 13 26 15 28
0 3 18 41 41
1 14 14 45 25 19 15 37 23 37 9 37 9 37 9 37
0 7 4 45 39 37 28 27 34
0 3 14 48 37
0 5 18 36 40 41 34
0 3 31 32 34
0 3 44 16 13
0 2 30 5
1 0 
0 44 14 45 25 35 21 35 21 35 21 19 15 37 9 37 17 35 21 19 10 9 23 37 23 37 23 37 9 37 23 37 35 21 19 10 9 37 17 34 21 35 21 19 15 37
1 7 4 43 37 42 1 4 43
1 9 14 0 0 26 41 7 32 44 31
0 7 14 40 2 24 41 18 25
0 10 7 40 38 21 11 42 31 29 7 32
0 2 47 7
0 4 31 32 16 1
1 0 
1 5 14 41 11 16 12
1 0 
0 9 4 43 19 42 1 9 1 49 41
0 24 4 37 42 1 9 41 17 39 13 12 17 2 7 32 31 12 44 44 31 37 31 16 37 31
1 8 9 17 17 48 13 39 13 7
0 2 10 43
0 7 4 37 42 1 4 14 0
1 0 
0 6 4 43 43 43 37 34
1 5 9 38 43 15 34
1 0 
0 7 30 40 43 43 9 41 34
0 5 3 14 17 2 7
0 5 9 49 1 25 19
1 0 
0 12 9 39 13 43 15 24 33 15 19 2 49 10
1 3 9 20 41
0 7 16 31 42 1 31 1 22
1 9 14 0 43 45 49 0 40 12 43
0 2 39 27
0 10 14 17 48 13 39 12 17 2 1 11
1 16 7 13 45 41 40 49 17 48 13 17 6 6 7 32 31 16
1 15 9 17 17 48 13 41 7 32 44 44 31 16 16 37 44
0 10 9 20 24 45 32 13 13 45 45 22
1 10 9 49 17 48 13 39 13 22 40 7
1 8 14 41 7 32 44 44 31 16
0 44 14 45 25 35 21 35 21 35 21 19 15 37 9 37 17 35 21 19 10 9 23 37 23 37 23 37 9 37 23 37 35 21 19 10 9 37 17 34 21 35 21 19 15 37
1 6 4 43 43 37 41 34
0 7 31 30 15 1 4 14 45
0 6 14 39 13 17 2 11
0 7 31 42 1 12 9 49 43
1 0 
1 7 9 17 17 2 11 32 44
1 16 4 37 42 1 14 41 11 16 12 8 8 20 32 31 16 16
0 2 1 16
0 4 40 1 4 17
0 11 31 42 31 42 38 1 31 42 1 31 34
0 8 31 42 34 1 31 18 41 34
0 3 29 39 24
1 8 9 49 17 48 13 45 47 29
1 6 9 17 17 48 13 45
1 0 
0 2 18 15
1 1 7
1 0 
0 1 43
1 10 9 38 47 47 43 43 45 17 0 43
0 5 14 17 10 2 26
0 7 4 5 15 37 41 39 34
0 5 13 2 23 1 34
1 11 7 41 40 38 22 40 22 43 45 20 22
1 9 9 20 41 18 41 40 49 45 29
1 9 9 49 41 11 16 31 48 13 43
1 0 
1 7 9 38 22 0 26 45 29
1 1 7
0 2 12 5
0 8 31 1 17 2 7 16 31 44
0 3 4 43 13
1 0 
0 7 34 0 0 2 33 24 43
0 3 0 14 16
1 17 14 41 11 16 31 48 13 41 11 32 31 37 31 37 44 31 16
1 8 4 37 42 1 7 41 40 17
0 2 26 41
0 2 49 41
0 3 41 21 34
0 2 47 24
0 4 41 48 7 1
0 2 12 41
1 13 4 43 43 43 37 42 1 9 49 39 13 22 38
1 5 9 17 17 6 19
0 2 5 31
1 6 4 43 37 42 1 16
1 1 7
1 1 7
0 3 21 7 22
1 0 
1 9 14 0 2 49 39 13 22 40 7
0 5 24 7 14 13 22
1 0 
1 0 
0 5 16 45 41 4 17
0 2 9 1
1 14 14 41 11 16 12 20 16 6 11 32 44 44 44 31
1 1 7
0 2 9 18
0 4 48 7 17 0
0 8 9 20 10 13 45 13 45 22
0 3 11 24 45
0 10 14 39 6 12 39 13 43 2 20 22
0 4 7 29 43 16
1 0 
1 3 9 20 41
0 4 14 39 13 14
0 11 4 43 37 42 1 4 43 43 37 30 34
1 8 14 39 13 43 0 17 24 43
1 0 
0 8 20 13 45 41 7 18 31 41
1 9 31 42 1 4 37 42 1 7 22
0 3 13 35 16
1 1 7
1 14 9 17 45 47 47 25 35 21 19 10 17 19 15 37
0 3 34 33 16
1 7 4 43 43 43 37 41 34
0 6 16 38 42 38 14 41
0 6 47 14 22 17 48 13
1 24 14 45 47 25 35 21 35 21 35 21 35 21 35 21 35 21 19 15 37 17 19 15 37 17
0 3 14 48 37
0 3 35 12 11
0 3 10 29 43
1 10 14 39 13 22 0 26 41 11 16 19
0 5 9 49 25 39 47
1 7 14 39 13 22 2 17 45
1 6 7 41 18 41 40 38
0 2 7 4
1 9 14 45 47 47 47 47 47 47 47
0 10 14 0 0 43 23 37 7 17 15 0
1 0 
0 5 16 22 0 40 7
0 5 1 9 43 0 24
1 7 7 41 40 49 17 2 7
1 8 9 17 17 6 6 11 16 12
1 8 4 37 42 1 9 17 0 38
0 5 3 37 13 37 34
0 7 31 42 9 49 41 7 32
1 9 31 42 1 14 39 13 43 15 28
0 2 1 38
0 6 31 42 49 45 37 29
1 13 4 43 43 37 42 1 9 17 39 13 43 0 24
0 2 40 31
0 2 33 6
1 9 4 43 37 42 1 9 17 41 11
0 3 34 42 43
1 1 7
0 6 14 41 11 16 10 6
1 12 9 38 47 12 45 25 19 10 23 37 23 37
1 8 9 38 43 40 22 15 36 5
0 3 12 7 34
0 5 9 45 16 41 38
1 9 31 42 1 9 49 17 48 13 43
1 4 9 38 47 7
1 1 7
1 0 
0 31 9 17 45 25 19 10 9 37 9 37 9 37 17 35 21 35 21 35 21 19 10 23 37 23 37 23 37 17 35 45 21
0 2 21 26
0 2 3 8
1 0 
1 8 9 38 47 43 40 12 0 38
0 4 9 36 17 39
0 3 31 3 7
0 4 9 17 6 2
0 4 15 12 34 43
0 6 7 13 45 9 13 45
1 6 9 38 22 2 20 22
0 2 24 15
1 4 14 45 47 29
0 5 31 40 6 41 34
0 3 2 42 22
1 9 9 38 47 22 40 43 15 36 5
0 3 29 21 16
0 2 27 12
0 2 34 15
0 5 43 27 31 41 34
1 10 14 0 15 36 37 9 15 38 33 10
0 6 7 0 35 33 20 28
1 0 
1 41 14 0 0 17 26 45 47 47 25 19 10 23 37 17 35 21 19 10 17 19 15 37 23 37 9 37 23 37 23 37 17 35 21 35 21 19 10 23 37 9 37
1 7 9 38 22 40 22 40 7
0 3 33 32 16
1 0 
1 1 7
0 5 9 17 41 1 16
0 11 31 42 31 42 38 1 31 42 1 31 34
0 4 2 1 21 16
1 12 7 41 40 49 39 13 47 12 45 25 35 21
0 5 7 41 40 47 47
1 15 9 49 0 0 24 39 13 43 15 3 15 30 15 36 37
0 3 27 42 16
0 1 36
1 10 9 38 47 43 40 47 43 2 17 43
0 3 2 42 22
0 2 36 43
0 4 20 13 45 22
0 5 9 17 13 45 29
0 3 32 30 16
1 7 9 38 22 40 22 40 7
0 3 43 1 42
1 0 
1 12 9 17 45 47 47 25 35 21 35 21 35 21
0 4 31 41 40 34
1 12 4 43 37 42 1 4 37 42 1 9 49 45
0 10 14 0 0 43 23 37 7 17 15 0
1 1 7
1 11 9 38 47 43 40 22 15 34 49 15 19
1 0 
1 0 
0 2 7 43
0 8 9 49 17 48 41 11 16 19
0 4 39 31 41 34
1 33 9 17 45 25 19 15 37 9 37 17 19 15 37 9 37 9 37 17 19 10 17 19 15 37 17 19 10 23 37 9 37 23 37
1 11 14 17 2 7 16 31 6 6 7 16 19
1 0 
0 3 18 20 13
0 7 31 42 39 46 1 7 14
0 5 40 14 6 0 19
1 1 7
0 5 38 30 13 41 22
0 9 2 9 49 0 0 10 45 47 29
0 6 4 43 37 42 47 4
0 5 4 37 42 13 16
0 13 9 49 41 26 16 6 7 16 31 48 11 13 43
0 3 49 10 20
0 9 9 17 33 13 47 22 40 12 43
0 2 0 39
0 6 4 18 16 37 41 34
0 4 31 19 41 6
0 5 5 19 22 28 14
0 6 33 42 1 31 41 36
1 12 14 39 13 43 2 49 39 13 12 39 13 7
0 3 35 11 41
0 10 43 26 25 43 43 47 37 35 41 34
0 7 1 4 20 19 0 19 34
0 5 14 39 47 43 7
1 23 31 42 1 4 43 37 42 1 14 45 47 25 35 21 19 10 9 37 9 37 17 35 21
1 11 9 20 41 40 20 13 45 13 45 41 34
0 6 43 41 40 49 17 11
0 6 14 39 13 17 2 11
0 6 7 40 20 45 49 18
1 0 
1 9 31 42 1 7 41 40 20 13 45
1 21 31 42 1 14 41 7 32 44 31 16 16 37 31 37 31 16 16 16 37 44 44
0 7 31 42 1 44 48 14 35
0 4 29 10 42 7
1 0 
1 9 14 41 7 16 12 8 27 8 20
0 11 7 6 5 13 31 8 13 45 13 45 22
1 9 9 49 17 6 12 8 8 20 32
1 12 4 37 42 1 4 43 43 43 37 42 1 16
1 0 
1 3 14 41 7
0 5 4 37 32 41 34
0 5 40 14 6 0 19
0 2 16 22
0 5 37 24 20 7 22
0 8 1 21 40 48 45 25 36 19
1 5 14 41 11 16 12
0 6 46 35 13 49 45 29
1 7 9 20 41 40 38 22 38
0 10 7 40 38 21 11 42 31 29 7 32
0 2 28 13
1 6 4 43 43 37 41 34
0 7 4 32 43 43 37 41 34
1 0 
0 6 4 43 37 21 42 16
0 3 1 29 45
0 5 16 22 0 40 7
1 0 
0 2 2 13
1 0 
1 9 9 49 39 13 47 12 39 13 22
0 8 4 37 42 1 7 41 40 41
0 2 28 49
0 5 25 42 1 14 41
1 16 7 13 45 41 40 49 17 48 13 17 6 6 7 32 31 16
1 8 7 41 40 17 17 6 6 11
0 3 10 16 22
0 4 9 17 5 13
0 8 31 46 42 1 14 41 7 19
1 0 
0 5 27 14 45 47 29
1 12 9 38 47 47 12 17 6 31 6 12 8 8
0 2 3 16
1 1 7
1 9 31 42 1 31 42 1 14 0 38
0 6 9 8 5 0 41 39
0 3 38 31 7
0 4 5 4 41 35
1 3 9 20 41
1 10 9 49 17 48 13 39 13 22 40 7
0 7 31 42 1 31 16 41 34
1 7 4 37 42 1 7 41 34
0 3 47 39 10
1 9 14 0 15 36 37 41 41 30 19
1 1 7
1 9 9 20 13 45 41 40 49 41 7
0 3 1 39 30
0 5 31 5 42 3 39
0 4 45 14 31 32
0 6 29 31 41 31 35 8
0 2 32 38
1 8 31 42 1 31 42 1 14 41
0 21 4 43 37 42 22 7 41 18 13 45 41 18 13 41 18 41 18 41 18 45 22
0 6 14 39 16 22 18 32
0 3 6 2 40
0 15 9 17 39 13 12 0 43 15 38 12 39 13 43 40 7
0 5 4 37 41 39 34
1 0 
1 0 
0 4 24 42 42 16
0 7 14 17 12 12 10 16 19
1 0 
1 8 14 39 13 43 2 49 17 2
0 5 31 1 7 9 43
1 6 4 43 43 37 41 34
0 15 14 39 6 43 40 47 22 0 24 17 6 6 12 10 0
0 4 14 39 13 14
1 0 
0 3 37 49 22
1 0 
0 2 37 36
1 8 7 13 45 13 45 41 40 38
0 6 37 48 40 45 47 29
1 10 14 41 7 32 44 31 16 37 31 37
1 4 31 42 1 4
0 3 31 42 49
0 3 14 47 49
1 0 
1 1 7
1 41 14 0 0 17 26 45 47 47 25 19 10 23 37 17 35 21 19 10 17 19 15 37 23 37 9 37 23 37 23 37 17 35 21 35 21 19 10 23 37 9 37
0 4 40 1 4 17
0 3 0 14 16
1 11 9 38 47 12 39 13 47 22 43 45 17
0 4 31 32 16 1
1 19 4 43 43 43 37 42 1 31 42 1 9 38 43 2 20 41 18 41 18
1 0 
0 8 22 4 43 43 42 44 42 1
0 4 38 12 41 7
1 13 31 42 1 14 0 40 47 22 43 45 17 45 29
0 7 30 40 43 43 9 41 34
1 6 4 43 43 37 41 34
1 13 14 39 13 12 45 47 47 25 19 10 9 37 17
1 7 4 43 43 43 37 41 34
1 7 4 37 42 1 9 20 41
0 7 24 41 40 20 41 18 22
1 6 9 38 22 2 20 22
1 7 14 41 7 32 44 31 16
0 3 29 43 43
0 3 29 39 24
1 13 4 43 43 43 37 42 1 9 49 39 13 22 38
0 5 38 9 5 25 43
0 7 9 17 17 19 48 13 43
1 6 14 17 2 11 16 19
0 5 38 30 13 41 22
1 8 9 38 43 0 24 17 6 19
0 9 9 17 41 16 31 2 7 32 44
1 10 14 41 7 32 44 31 16 37 31 37
0 3 0 42 48
1 7 4 37 42 1 7 41 34
0 5 4 37 32 41 34
0 8 9 49 17 48 41 11 16 19
0 6 46 35 13 49 45 29
0 9 4 43 19 42 1 9 1 49 41
0 14 14 41 11 32 44 34 31 37 31 37 31 16 16 16
1 0 
1 6 9 20 13 45 41 34
1 0 
0 3 5 41 11
0 6 18 39 38 46 3 31
0 3 43 1 42
0 3 9 24 4
1 8 9 17 41 7 32 44 44 44
1 6 9 20 13 45 41 34
0 7 34 7 31 42 13 1 1
1 0 
0 3 31 19 34
0 12 9 10 0 43 43 7 38 12 39 28 21 41
0 9 4 48 43 43 43 43 37 5 34
0 7 9 49 17 38 36 13 47
0 4 45 14 31 32
0 6 6 2 23 37 31 1
